ds4ppSet 2a
…
Look carefully! (This may seem like an exercise in pointlessness, but training your brain to notice even the tiniest difference will pay off when programming.)

Tweak each of the following R commands so that they run correctly:

library(tidyverse)

ggplot(data = mpg) + geom_point(mapping = aes(x = displ, y = hwy))

library(gapminder)

#| eval: false
#| 
filter(mpg, cyl == 8)

# A tibble: 70 × 11
   manufacturer model      displ  year   cyl trans drv     cty   hwy fl    class
   <chr>        <chr>      <dbl> <int> <int> <chr> <chr> <int> <int> <chr> <chr>
 1 audi         a6 quattro   4.2  2008     8 auto… 4        16    23 p     mids…
 2 chevrolet    c1500 sub…   5.3  2008     8 auto… r        14    20 r     suv  
 3 chevrolet    c1500 sub…   5.3  2008     8 auto… r        11    15 e     suv  
 4 chevrolet    c1500 sub…   5.3  2008     8 auto… r        14    20 r     suv  
 5 chevrolet    c1500 sub…   5.7  1999     8 auto… r        13    17 r     suv  
 6 chevrolet    c1500 sub…   6    2008     8 auto… r        12    17 r     suv  
 7 chevrolet    corvette     5.7  1999     8 manu… r        16    26 p     2sea…
 8 chevrolet    corvette     5.7  1999     8 auto… r        15    23 p     2sea…
 9 chevrolet    corvette     6.2  2008     8 manu… r        16    26 p     2sea…
10 chevrolet    corvette     6.2  2008     8 auto… r        15    25 p     2sea…
# ℹ 60 more rows
…
ggplot(data = mpg, mapping = aes(x = cty, y = hwy)) +
  geom_count()

Looking ahead: data transformation

Next week’s class will focus on transforming data in the tidyverse. But you’ve already seen some of the key functions in our gapminder example. We’ll expand on that a bit more now. Hint: To do this part of the problem set, you might want to check out R4DS Ch. 3.

First, let’s load gapminder.

library(gapminder)
gapminder

# A tibble: 1,704 × 6
   country     continent  year lifeExp      pop gdpPercap
   <fct>       <fct>     <int>   <dbl>    <int>     <dbl>
 1 Afghanistan Asia       1952    28.8  8425333      779.
 2 Afghanistan Asia       1957    30.3  9240934      821.
 3 Afghanistan Asia       1962    32.0 10267083      853.
 4 Afghanistan Asia       1967    34.0 11537966      836.
 5 Afghanistan Asia       1972    36.1 13079460      740.
 6 Afghanistan Asia       1977    38.4 14880372      786.
 7 Afghanistan Asia       1982    39.9 12881816      978.
 8 Afghanistan Asia       1987    40.8 13867957      852.
 9 Afghanistan Asia       1992    41.7 16317921      649.
10 Afghanistan Asia       1997    41.8 22227415      635.
# ℹ 1,694 more rows
…
