ds4ppSet 2b
…
crime <- read_csv("ca_crime_stats.csv")

Rows: 550 Columns: 49
── Column specification ────────────────────────────────────────────────────────
Delimiter: ","
chr  (1): county
dbl (46): year, violent_crimes, property_crimes, violent_clearance_rate, pro...
lgl  (2): calls_for_service, contracting_agencies

ℹ Use `spec()` to retrieve the full column specification for this data.
ℹ Specify the column types or set `show_col_types = FALSE` to quiet this message.

crime

# A tibble: 550 × 49
    year county       violent_crimes property_crimes violent_clearance_rate
   <dbl> <chr>                 <dbl>           <dbl>                  <dbl>
 1  2005 Alameda                9749           63034                   27.7
 2  2005 Amador                  140            1011                   47.1
 3  2005 Butte                   752            7335                   41.0
 4  2005 Calaveras               153             925                   55.6
 5  2005 Colusa                   51             568                   56.9
 6  2005 Contra Costa           4513           39147                   35.8
 7  2005 Del Norte               120             804                   55.8
 8  2005 El Dorado               482            3632                   66.8
 9  2005 Fresno                 5574           41890                   52.1
10  2005 Glenn                    73             825                   74.0
# ℹ 540 more rows
# ℹ 44 more variables: property_clearance_rate <dbl>, arrests_total <dbl>,
#   arrests_felony <dbl>, arrests_misdemeanor <dbl>,
#   arrests_status_offense <dbl>, dic_total_deaths <dbl>,
#   dic_arrest_related <dbl>, dic_city_county_jails <dbl>,
#   leoka_total_deaths <dbl>, leoka_felony_deaths <dbl>,
#   leoka_accidental_deaths <dbl>, leoka_total_assaults <dbl>, …
…
